{
    "version": "1",
    "date": "2023-01-01 06:07:08",
    "employee": {
        "position": "developer"
    },
    "employees": [
        {
            "position": "developer",
            "id": 1,
            "salary": 4000,
            "experience": 2,
            "personal": {
                "name": "John Doe",
                "email": "john.doe@gmail.com"
            }
        },
        {
            "position": "developer",
            "id": 2,
            "salary": 500,
            "experience": 3,
            "personal": {
                "name": "Joe Doe",
                "email": "joe.doe@gmail.com"
            }
        },
        {
            "position": "manager",
            "id": 3,
            "salary": 7000,
            "experience": 6,
            "personal": {
                "name": "Jim Doe",
                "email": "jim.doe@gmail.com"
            }
        },
        {
            "position": "designer",
            "id": 4,
            "salary": 2500,
            "experience": 2,
            "personal": {
                "name": "Jack Doe",
                "email": "jack.doe@gmail.com"
            }
        }
    ]
}
